Verification_codes/dump.vcd
$date
	Thu Jul 24 12:10:31 2025
$end
$version
	QuestaSim Version 10.6c
$end
$timescale
	1ns
$end

$scope module tb $end
$var reg 1 ! pclk $end
$var reg 1 " presetn $end

$scope module dut $end
$var wire 1 # pclk $end
$var wire 1 $ presetn $end
$var wire 1 % paddr [31] $end
$var wire 1 & paddr [30] $end
$var wire 1 ' paddr [29] $end
$var wire 1 ( paddr [28] $end
$var wire 1 ) paddr [27] $end
$var wire 1 * paddr [26] $end
$var wire 1 + paddr [25] $end
$var wire 1 , paddr [24] $end
$var wire 1 - paddr [23] $end
$var wire 1 . paddr [22] $end
$var wire 1 / paddr [21] $end
$var wire 1 0 paddr [20] $end
$var wire 1 1 paddr [19] $end
$var wire 1 2 paddr [18] $end
$var wire 1 3 paddr [17] $end
$var wire 1 4 paddr [16] $end
$var wire 1 5 paddr [15] $end
$var wire 1 6 paddr [14] $end
$var wire 1 7 paddr [13] $end
$var wire 1 8 paddr [12] $end
$var wire 1 9 paddr [11] $end
$var wire 1 : paddr [10] $end
$var wire 1 ; paddr [9] $end
$var wire 1 < paddr [8] $end
$var wire 1 = paddr [7] $end
$var wire 1 > paddr [6] $end
$var wire 1 ? paddr [5] $end
$var wire 1 @ paddr [4] $end
$var wire 1 A paddr [3] $end
$var wire 1 B paddr [2] $end
$var wire 1 C paddr [1] $end
$var wire 1 D paddr [0] $end
$var wire 1 E pwdata [31] $end
$var wire 1 F pwdata [30] $end
$var wire 1 G pwdata [29] $end
$var wire 1 H pwdata [28] $end
$var wire 1 I pwdata [27] $end
$var wire 1 J pwdata [26] $end
$var wire 1 K pwdata [25] $end
$var wire 1 L pwdata [24] $end
$var wire 1 M pwdata [23] $end
$var wire 1 N pwdata [22] $end
$var wire 1 O pwdata [21] $end
$var wire 1 P pwdata [20] $end
$var wire 1 Q pwdata [19] $end
$var wire 1 R pwdata [18] $end
$var wire 1 S pwdata [17] $end
$var wire 1 T pwdata [16] $end
$var wire 1 U pwdata [15] $end
$var wire 1 V pwdata [14] $end
$var wire 1 W pwdata [13] $end
$var wire 1 X pwdata [12] $end
$var wire 1 Y pwdata [11] $end
$var wire 1 Z pwdata [10] $end
$var wire 1 [ pwdata [9] $end
$var wire 1 \ pwdata [8] $end
$var wire 1 ] pwdata [7] $end
$var wire 1 ^ pwdata [6] $end
$var wire 1 _ pwdata [5] $end
$var wire 1 ` pwdata [4] $end
$var wire 1 a pwdata [3] $end
$var wire 1 b pwdata [2] $end
$var wire 1 c pwdata [1] $end
$var wire 1 d pwdata [0] $end
$var wire 1 e psel $end
$var wire 1 f pwrite $end
$var wire 1 g penable $end
$var wire 1 h prdata [31] $end
$var wire 1 i prdata [30] $end
$var wire 1 j prdata [29] $end
$var wire 1 k prdata [28] $end
$var wire 1 l prdata [27] $end
$var wire 1 m prdata [26] $end
$var wire 1 n prdata [25] $end
$var wire 1 o prdata [24] $end
$var wire 1 p prdata [23] $end
$var wire 1 q prdata [22] $end
$var wire 1 r prdata [21] $end
$var wire 1 s prdata [20] $end
$var wire 1 t prdata [19] $end
$var wire 1 u prdata [18] $end
$var wire 1 v prdata [17] $end
$var wire 1 w prdata [16] $end
$var wire 1 x prdata [15] $end
$var wire 1 y prdata [14] $end
$var wire 1 z prdata [13] $end
$var wire 1 { prdata [12] $end
$var wire 1 | prdata [11] $end
$var wire 1 } prdata [10] $end
$var wire 1 ~ prdata [9] $end
$var wire 1 !! prdata [8] $end
$var wire 1 "! prdata [7] $end
$var wire 1 #! prdata [6] $end
$var wire 1 $! prdata [5] $end
$var wire 1 %! prdata [4] $end
$var wire 1 &! prdata [3] $end
$var wire 1 '! prdata [2] $end
$var wire 1 (! prdata [1] $end
$var wire 1 )! prdata [0] $end
$var reg 4 *! cntrl [3:0] $end
$var reg 32 +! reg1 [31:0] $end
$var reg 32 ,! reg2 [31:0] $end
$var reg 32 -! reg3 [31:0] $end
$var reg 32 .! reg4 [31:0] $end
$var reg 32 /! rdata_tmp [31:0] $end
$upscope $end
$upscope $end
$enddefinitions $end
#0
$dumpvars
0!
1"
b0 *!
b0 +!
b0 ,!
b0 -!
b0 .!
b0 /!
0#
1$
xe
xg
xf
xD
xC
xB
xA
x@
x?
x>
x=
x<
x;
x:
x9
x8
x7
x6
x5
x4
x3
x2
x1
x0
x/
x.
x-
x,
x+
x*
x)
x(
x'
x&
x%
xd
xc
xb
xa
x`
x_
x^
x]
x\
x[
xZ
xY
xX
xW
xV
xU
xT
xS
xR
xQ
xP
xO
xN
xM
xL
xK
xJ
xI
xH
xG
xF
xE
0)!
0(!
0'!
0&!
0%!
0$!
0#!
0"!
0!!
0~
0}
0|
0{
0z
0y
0x
0w
0v
0u
0t
0s
0r
0q
0p
0o
0n
0m
0l
0k
0j
0i
0h
$end
#5
1!
1#
1e
0g
1f
1d
0c
1b
0a
0`
1_
0^
1]
0\
0[
0Z
0Y
0X
0W
0V
0U
0T
0S
0R
0Q
0P
0O
0N
0M
0L
0K
0J
0I
0H
0G
0F
0E
0D
0C
1B
0A
0@
0?
0>
0=
0<
0;
0:
09
08
07
06
05
04
03
02
01
00
0/
0.
0-
0,
0+
0*
0)
0(
0'
0&
0%
#10
0"
0!
0$
0#
#15
1!
1#
b1011010010110100101010101010101 +!
b10010001101001001100001110110 ,!
b10100101101001010000000000000000 -!
b1111111111111111 .!
#20
0!
0#
#25
1!
1#
1g
#30
0!
0#
#35
1!
1#
1$
#40
0!
0#
#45
1!
1#
#50
0!
0#
#55
1!
1#
#60
0!
0#
#65
1!
1#
0e
0g
#70
0!
0#
#75
1!
1#
0B
0d
0b
0_
0]
0f
#80
0!
0#
#85
1!
1#
1e
1B
#90
0!
0#
#95
1!
1#
#100
0!
0#
#105
1!
1#
1g
#110
0!
0#
#115
1!
1#
b1011010010110100101010101010101 /!
1)!
1'!
1%!
1#!
1!!
1}
1{
1y
1v
1t
1s
1q
1n
1l
1k
1i
#120
0!
0#
#125
1!
1#
#130
0!
0#
#135
1!
1#
#140
0!
0#
#145
1!
1#
0e
0g
#150
0!
0#
#155
1!
1#
0B
#160
0!
0#
#165
1!
1#
1e
1f
1b
1a
1`
1_
1A
#170
0!
0#
#175
1!
1#
#180
0!
0#
#185
1!
1#
1g
#190
0!
0#
#195
1!
1#
b111100 ,!
#200
0!
0#
#205
1!
1#
#210
0!
0#
#215
1!
1#
#220
0!
0#
#225
1!
1#
0e
0g
#230
0!
0#
#235
1!
1#
0A
0b
0a
0`
0_
0f
#240
0!
0#
#245
1!
1#
1e
1A
#250
0!
0#
#255
1!
1#
#260
0!
0#
#265
1!
1#
1g
#270
0!
0#
#275
1!
1#
b111100 /!
0)!
1&!
1$!
0#!
0!!
0}
0{
0y
0v
0t
0s
0q
0n
0l
0k
0i
#280
0!
0#
#285
1!
1#
#290
0!
0#
#295
1!
1#
#300
0!
0#
#305
1!
1#
0e
0g
#310
0!
0#
#315
1!
1#
0A
#320
0!
0#
#325
1!
1#
1e
1f
1c
1b
1a
1`
1_
1^
1B
1A
#330
0!
0#
#335
1!
1#
#340
0!
0#
#345
1!
1#
1g
#350
0!
0#
#355
1!
1#
b1111110 -!
#360
0!
0#
#365
1!
1#
#370
0!
0#
#375
1!
1#
#380
0!
0#
#385
1!
1#
0e
0g
#390
0!
0#
#395
1!
1#
0B
0A
0c
0b
0a
0`
0_
0^
0f
#400
0!
0#
#405
1!
1#
1e
1B
1A
#410
0!
0#
#415
1!
1#
#420
0!
0#
#425
1!
1#
1g
#430
0!
0#
#435
1!
1#
b1111110 /!
1(!
1#!
#440
0!
0#
#445
1!
1#
#450
0!
0#
#455
1!
1#
#460
0!
0#
#465
1!
1#
0e
0g
#470
0!
0#
#475
1!
1#
0B
0A
